{
    "settings" : {
        "number_of_shards" : 1
    },

    "mappings": {
        "properties": {
          "@timestamp": {
            "type": "date"
          },
          "@version": {
            "type": "text",
            "fields": {
              "keyword": {
                "type": "keyword",
                "ignore_above": 256
              }
            }
          },
          "address": {
            "type": "geo_point"
          },
          "community_id": {
            "type": "text",
            "fields": {
              "keyword": {
                "type": "keyword",
                "ignore_above": 256
              }
            }
          },
          "community_name": {
            "type": "text",
            "fields": {
              "keyword": {
                "type": "keyword",
                "ignore_above": 256
              }
            }
          },
          "community_created_date": {
            "type": "date"
          },
          "latitude": {
            "type": "float"
          },
          "longitude": {
            "type": "float"
          },
          
          "account_created_date": {
            "type": "date"
          },
          "gender": {
            "type": "text",
            "fields": {
              "keyword": {
                "type": "keyword",
                "ignore_above": 256
              }
            }
          },
          "user_id": {
            "type": "text",
            "fields": {
              "keyword": {
                "type": "keyword",
                "ignore_above": 256
              }
            }
          },
          "user_status": {
            "type": "integer"
          }
        }
    }
}

